{
	"info": {
		"_postman_id": "657869a5-a5ba-46b7-a1f5-31a0ef2959e1",
		"name": "New Collection",
		"schema": "https://schema.getpostman.com/json/collection/v2.1.0/collection.json"
	},
	"item": [
		{
			"name": "list clientes",
			"request": {
				"method": "GET",
				"header": [],
				"url": {
					"raw": "http://localhost:8080/cliente/list?pagina=1&qtdPerPage=2",
					"protocol": "http",
					"host": [
						"localhost"
					],
					"port": "8080",
					"path": [
						"cliente",
						"list"
					],
					"query": [
						{
							"key": "pagina",
							"value": "1"
						},
						{
							"key": "qtdPerPage",
							"value": "2"
						}
					]
				}
			},
			"response": []
		},
		{
			"name": "delete clientes",
			"request": {
				"method": "DELETE",
				"header": [],
				"url": {
					"raw": "http://localhost:8080/cliente/1",
					"protocol": "http",
					"host": [
						"localhost"
					],
					"port": "8080",
					"path": [
						"cliente",
						"1"
					]
				}
			},
			"response": []
		},
		{
			"name": "save cliente",
			"request": {
				"method": "POST",
				"header": [],
				"body": {
					"mode": "raw",
					"raw": "{\"nome\":\"nome valido\",\"idade\":99,\"endereco\":\"endereco valido\",\"cpf\":\"090.181.774-07\",\"telefone\":\"(99) 99999-9999\"}",
					"options": {
						"raw": {
							"language": "json"
						}
					}
				},
				"url": {
					"raw": "http://localhost:8080/cliente/",
					"protocol": "http",
					"host": [
						"localhost"
					],
					"port": "8080",
					"path": [
						"cliente",
						""
					]
				}
			},
			"response": []
		},
		{
			"name": "update cliente",
			"request": {
				"method": "PUT",
				"header": [
					{
						"key": "Content-Type",
						"value": "application/json",
						"type": "text"
					}
				],
				"body": {
					"mode": "raw",
					"raw": "{\"id\":1,\"nome\":\"nome valido update\",\"idade\":10,\"endereco\":\"endereco valido update\",\"cpf\":\"254.395.850-95\",\"telefone\":\"(11) 11111-1111\"}"
				},
				"url": {
					"raw": "http://localhost:8080/cliente/",
					"protocol": "http",
					"host": [
						"localhost"
					],
					"port": "8080",
					"path": [
						"cliente",
						""
					]
				}
			},
			"response": []
		},
		{
			"name": "get cliente",
			"request": {
				"method": "GET",
				"header": [],
				"url": {
					"raw": "http://localhost:8080/cliente/1",
					"protocol": "http",
					"host": [
						"localhost"
					],
					"port": "8080",
					"path": [
						"cliente",
						"1"
					]
				}
			},
			"response": []
		},
		{
			"name": "filtro",
			"request": {
				"method": "POST",
				"header": [],
				"body": {
					"mode": "raw",
					"raw": "{\"id\":1,\"nome\":\"nome\",\"idade\":null,\"endereco\":null,\"cpf\":null,\"telefone\":null,\"pagina\":0,\"qtdPerPage\":99}",
					"options": {
						"raw": {
							"language": "json"
						}
					}
				},
				"url": {
					"raw": "http://localhost:8080/cliente/filter",
					"protocol": "http",
					"host": [
						"localhost"
					],
					"port": "8080",
					"path": [
						"cliente",
						"filter"
					]
				}
			},
			"response": []
		}
	]
}